[IRCReconstruction] WARNING: 3 NFPGAs for 1 boards! Ignoring last 2 occurrences in NFPGAs..
[IRCReconstruction] WARNING: 3 NSlots for 1 boards! Ignoring last 2 occurrences in NSlots..
[IRCReconstruction] WARNING: 3 LastSlotID for 1 boards! Ignoring last 2 occurrences in LastSlotID..
Error in <TFormula::Compile>:  Bad numerical expression : "[0]0."
Error in <TF1::TF1>: function: MUV1TPosDependency/[0] 0. has 0 parameters instead of 1
Error in <TFormula::Compile>:  Bad numerical expression : "[0]1"
Error in <TF1::TF1>: function: MUV1QPosDependency/[0] 1 has 0 parameters instead of 1
Warning in <TH1::TH1>: nbins is <=0 - set to nbins = 1
Warning in <TH1::TH1>: nbins is <=0 - set to nbins = 1
